<?xml version="1.0" standalone="no"?>
<!DOCTYPE svg PUBLIC "-//W3C//DTD SVG 1.1//EN" "http://www.w3.org/Graphics/SVG/1.1/DTD/svg11.dtd">
<svg xmlns="http://www.w3.org/2000/svg">
<metadata>Generated by Fontastic.me</metadata>
<defs>
<font id="chatter" horiz-adv-x="512">
<font-face font-family="chatter" units-per-em="512" ascent="480" descent="-32"/>
<missing-glyph horiz-adv-x="512" />

<glyph glyph-name="chatter" unicode="&#97;" d="M256 432c-95 0-176-51-176-112 0-4 4-8 8-8 4 0 8 4 8 8 0 51 75 96 160 96 4 0 8 4 8 8 0 4-4 8-8 8z m0 80c-141 0-256-86-256-192 0-66 44-124 112-159 0 0 0-1 0-1 0-29-21-60-31-76-1-2-1-3-1-6 0-8 6-14 14-14 2 0 5 0 5 0 50 8 97 54 108 68 16-3 32-4 49-4 141 0 256 86 256 192 0 106-115 192-256 192z m0-352c-15 0-30 1-45 3-1 1-3 1-4 1-10 0-19-5-25-12-7-8-26-27-49-41 6 15 11 31 11 47 0 1 0 2 0 3 0 12-7 23-17 29-60 30-95 79-95 130 0 88 100 160 224 160 123 0 224-72 224-160 0-88-100-160-224-160z"/>
<glyph glyph-name="chatter-1" unicode="&#98;" d="M229 297l0 128c0 3-1 5-3 7-2 1-4 2-7 2-2 0-4-1-6-2-2-2-3-4-3-7l0-128c0-3 1-5 3-6 2-2 4-3 6-3 3 0 5 1 7 3 2 1 3 3 3 6z m192-100c0-5-2-10-6-13-3-4-8-6-13-6l-122 0-15-138c0-2-1-4-3-6-1-1-3-2-6-2-5 0-8 3-9 8l-22 138-115 0c-5 0-10 2-13 6-4 3-6 8-6 13 0 23 8 44 23 63 15 19 32 28 51 28l0 146c-10 0-19 4-26 11-7 7-11 16-11 26 0 10 4 18 11 26 7 7 16 10 26 10l182 0c10 0 19-3 26-10 7-8 11-16 11-26 0-10-4-19-11-26-7-7-16-11-26-11l0-146c19 0 36-9 51-28 15-19 23-40 23-63z"/>
<glyph glyph-name="chatter-2" unicode="&#99;" d="M256 512c-124 0-224-100-224-224 0-124 100-224 224-224 124 0 224 100 224 224 0 124-100 224-224 224z m115-149l-139-179c-1-1-3-3-5-3-3 0-4 1-5 3-2 1-79 76-79 76l-2 1c0 1-1 2-1 3 0 2 1 3 1 4 1 0 1 0 1 1 8 8 24 24 25 25 1 2 2 3 4 3 3 0 5-2 6-3 1-1 45-43 45-43l111 143c1 0 2 1 4 1 1 0 2 0 3-1l31-24c0-1 1-3 1-4 0-1 0-2-1-3z"/>
<glyph glyph-name="chatter-3" unicode="&#100;" d="M384 270l0 36c0 5-2 10-5 13-4 4-8 6-13 6l-73 0 0 73c0 5-2 9-6 13-3 3-8 5-13 5l-36 0c-5 0-10-2-13-5-4-4-6-8-6-13l0-73-73 0c-5 0-9-2-13-6-3-3-5-8-5-13l0-36c0-5 2-10 5-13 4-4 8-6 13-6l73 0 0-73c0-5 2-9 6-13 3-3 8-5 13-5l36 0c5 0 10 2 13 5 4 4 6 8 6 13l0 73 73 0c5 0 9 2 13 6 3 3 5 8 5 13z m91 18c0-40-9-77-29-110-20-34-46-60-80-80-33-20-70-29-110-29-40 0-77 9-110 29-34 20-60 46-80 80-20 33-29 70-29 110 0 40 9 77 29 110 20 34 46 60 80 80 33 20 70 29 110 29 40 0 77-9 110-29 34-20 60-46 80-80 20-33 29-70 29-110z"/>
<glyph glyph-name="chatter-4" unicode="&#101;" d="M408 458l-152-152 152-151c3-4 5-8 5-13 0-5-2-10-5-13l-48-48c-3-3-8-5-13-5-5 0-9 2-12 5l-212 212c-4 4-6 8-6 13 0 5 2 10 6 13l212 212c3 4 7 6 12 6 5 0 10-2 13-6l48-47c3-4 5-8 5-13 0-5-2-9-5-13z"/>
<glyph glyph-name="chatter-5" unicode="&#102;" d="M438 157l-131 131 131 131c14 14 14 36 0 50-15 15-37 15-51 0l-131-130-131 130c-14 15-36 15-50 0-15-14-15-36 0-50l130-131-130-131c-15-14-15-36 0-51 14-14 36-14 50 0l131 131 131-131c14-14 36-14 51 0 14 15 14 37 0 51z"/>
<glyph glyph-name="chatter-6" unicode="&#103;" d="M87 343c42-24 98-36 169-36 71 0 127 12 169 36 0 0-28-249-28-249 0-4-6-10-18-18-11-7-28-15-51-22-23-7-47-11-72-11-25 0-49 4-72 11-22 7-39 15-51 22-11 8-18 14-18 18 0 0-28 249-28 249m250 154c32-6 59-16 81-28 22-13 33-25 33-37 0 0 0-5 0-5 0-20-20-36-58-50-38-14-84-21-137-21-53 0-99 7-137 21-38 14-58 30-58 50 0 0 0 5 0 5 0 12 11 24 33 37 22 12 49 22 81 28 0 0 22 24 22 24 7 9 19 14 35 14 0 0 48 0 48 0 17 0 29-5 35-14 0 0 22-24 22-24m-28-57c0 0 43 0 43 0-31 37-49 59-53 64-5 6-10 8-16 8 0 0-53 0-53 0-7 0-13-2-16-8 0 0-54-64-54-64 0 0 43 0 43 0 0 0 33 33 33 33 0 0 42 0 42 0 0 0 31-33 31-33"/>
<glyph glyph-name="chatter-7" unicode="&#104;" d="M424 457c11-11 19-22 24-33 5-11 8-19 8-24 0 0 0-9 0-9 0 0-129-129-129-129 0 0-149-147-149-147 0 0-122-27-122-27 0 0 26 123 26 123 0 0 148 148 148 148 0 0 129 129 129 129 19 4 40-6 65-31m-253-328c0 0 12 13 12 13 0 15-9 31-26 48-8 7-16 13-23 18-8 4-14 6-18 6 0 0-7 1-7 1 0 0-12-12-12-12 0 0-9-41-9-41 10-5 17-11 24-17 8-9 14-17 18-25 0 0 41 9 41 9"/>
<glyph glyph-name="chatter-8" unicode="&#105;" d="M499 97c4-6 4-12 0-18-3-5-8-8-15-8 0 0-457 0-457 0-6 0-11 3-14 8-4 6-4 12-1 18 0 0 228 400 228 400 3 6 8 9 16 9 7 0 12-3 15-9 0 0 228-400 228-400m-215 25c0 0 0 51 0 51 0 0-56 0-56 0 0 0 0-51 0-51 0 0 56 0 56 0m0 89c0 0 0 154 0 154 0 0-56 0-56 0 0 0 0-154 0-154 0 0 56 0 56 0"/>
<glyph glyph-name="chatter-9" unicode="&#106;" d="M475 393l0-274c0-23-8-42-24-58-16-16-35-24-58-24l-274 0c-23 0-42 8-58 24-16 16-24 35-24 58l0 274c0 23 8 42 24 58 16 16 35 24 58 24l274 0c23 0 42-8 58-24 16-16 24-35 24-58z"/>
<glyph glyph-name="chatter-10" unicode="&#107;" d="M405 512c-85 0-106-64-106-107l0-106-299 0 0-235c0-35 29-64 64-64l256 0c35 0 64 29 64 64l0 235-43 0 0 128c0 0 0 42 64 42 64 0 64-42 64-42l0-86 43 0 0 64c0 43-21 107-107 107z m-64-448c0-12-9-21-21-21l-256 0c-12 0-21 9-21 21l0 192 298 0z m-170 70l0-49 42 0 0 49c13 7 22 21 22 37 0 23-19 42-43 42-24 0-43-19-43-42 0-16 9-30 22-37z"/>
<glyph glyph-name="chatter-11" unicode="&#108;" d="M400 304l0 64c0 80-64 144-144 144-80 0-144-64-144-144l0-64c-27 0-48-21-48-48l0-112c0-80 64-144 144-144l96 0c80 0 144 64 144 144l0 112c0 27-22 48-48 48z m-256 64c0 62 50 112 112 112 62 0 112-50 112-112l0-64-32 0 0 64c0 44-36 80-80 80-44 0-80-36-80-80l0-64-32 0z m176 0l0-64-128 0 0 64c0 35 29 64 64 64 35 0 64-29 64-64z m96-160l0-64c0-62-50-112-112-112l-96 0c-62 0-112 50-112 112l0 112c0 9 7 16 16 16 11 0 21 0 32 0l224 0c11 0 21 0 32 0 9 0 16-7 16-16z m-160 0c-18 0-32-14-32-32 0-10 5-28 11-43 4-12 9-21 21-21 13 0 17 9 21 21 6 15 11 33 11 43 0 18-14 32-32 32z"/>
<glyph glyph-name="chatter-12" unicode="&#109;" d="M477 350c0-7-2-14-8-19l-206-207-39-39c-6-5-12-8-20-8-7 0-14 3-19 8l-142 142c-6 6-8 12-8 20 0 7 2 14 8 19l38 39c6 5 12 8 20 8 7 0 14-3 19-8l84-84 188 188c5 5 12 8 19 8 8 0 14-3 20-8l38-39c6-6 8-12 8-20z"/>
<glyph glyph-name="chatter-13" unicode="&#110;" d="M480 320l-157 20-67 140-67-140-157-20 115-104-29-152 138 74 139-74-30 152z"/>
</font></defs></svg>
